<?xml version="1.0" encoding="utf-8"?>
<!-- Generator: Adobe Illustrator 18.0.0, SVG Export Plug-In . SVG Version: 6.00 Build 0)  -->
<!DOCTYPE svg PUBLIC "-//W3C//DTD SVG 1.1//EN" "http://www.w3.org/Graphics/SVG/1.1/DTD/svg11.dtd">
<svg version="1.1" id="Layer_1" xmlns="http://www.w3.org/2000/svg" xmlns:xlink="http://www.w3.org/1999/xlink" x="0px" y="0px"
	 viewBox="0 0 172.4 214.5" enable-background="new 0 0 172.4 214.5" xml:space="preserve">
<path fill="#3C3C3E" d="M120.2,111c4.3-1.3,3.5-0.9,4.7,2.5c0.7,2,1.2,4,2,5.9c0.6,1.4,0.1,2.1-1.3,2.4c-0.3,0.1-0.6,0.2-0.9,0.3
	c-3.5,1.2-3.1,1.1-2.6,4.8c0.3,2.4,0.1,4.8,1.3,7.2c5.7,11.4,14.4,19.4,26.1,24.2c2,0.8,3.2,2,3.8,4.1c1.8,5.9,3.9,11.8,5.8,17.7
	c0.6,1.8,1.4,2.5,3.3,1.6c1.7-0.7,3.5-1.1,5.2-1.8c1.6-0.6,2.5-0.2,3,1.6c0.4,1.6,0.9,3.2,1.5,4.8c0.7,1.7,0.3,2.4-1.5,3
	c-20.9,6.8-41.7,13.8-62.6,20.7c-4.2,1.4-8.3,2.7-12.4,4.2c-1.3,0.5-1.9,0.3-2.4-1.1c-2.8-7.3-2.9-7.3,4.6-9.8
	c1.9-0.6,2.3-1.4,1.6-3.3c-2.1-5.9-4-11.9-6.1-17.9c-0.7-1.9-0.5-3.4,0.6-5.1c7.2-11.7,9.5-24.2,6.1-37.6c-0.3-1.2-0.5-2.2-1.9-2.7
	c-1.1-0.4-1.2-1.8-1.5-2.9c-0.4-1.6-1.1-2-2.8-1.5c-5.5,1.7-5.5,1.6-7.3-3.8c-0.2-0.7-0.4-1.4-0.6-2.1c-1.1-3.5-1.1-3.5,2-5
	c-3.9-1.9-7.8-3.6-11.4-5.9c-1-0.7-2-0.2-3,0c-25.6,4.2-47.1-5.5-60.3-27.5C6.2,76.6,2.6,63.9,0.1,50.8c-0.3-1.5,0.5-1.8,1.7-1.9
	c7-0.7,14-1.4,21-2c6-0.5,12.1-0.8,18.1-1.4c2.3-0.2,3.7,0.2,4.1,2.7c0.3,2.1,1.4,2.4,3.4,1.7c20.1-6.8,40.2-13.5,60.4-20.1
	c2.2-0.7,2.7-1.7,1.7-3.6c-1.2-2.4-0.4-3.8,1.8-5.2c10.6-6.7,21.2-13.3,31.9-19.9c2.9-1.8,2.9-1.8,4.4,1.3
	c4.8,10.3,8.8,20.8,10.6,32.1c4.2,26.6-6.7,50-31,62.1c-1.1,0.6-2.1,1.1-2.5,2.4c-1.4,4.1-3.6,7.8-5.7,11.5
	c-0.1,0.1-0.2,0.3-0.2,0.3C119.8,111.2,120,111.1,120.2,111z M129.5,82.2c10.7-7.8,16.7-17.8,18.3-30.4c1.5-11.9-1.6-22.9-5.5-33.9
	c-0.5-1.3-1-1.4-2.1-0.7c-5.2,3.4-10.5,6.7-15.8,10c-0.4,0.3-1,0.4-0.9,1c0.1,0.7,0.8,0.7,1.3,0.9c1.7,0.4,3.4,0.8,5.1,1.2
	c1.3,0.3,1.7,0.9,1.4,2.2c-0.7,2.7-1.3,5.4-1.9,8.1c-0.2,0.7-0.5,1.3-1.3,1.2c-3.3-0.7-2.1,1.5-1.8,2.9c1.7,8,3,16,3.2,24.2
	C129.8,73.1,129.5,77.4,129.5,82.2z M63.7,104.9c-2-2.4-3.8-4.4-5.4-6.5C52,90.4,47,81.5,42.8,72.2c-0.6-1.3-1-2.3-2.3-0.7
	c-0.7,0.8-1.5,0.7-2.3,0C36.1,69.7,34,68,32,66.3c-1-0.8-1.1-1.7-0.2-2.7c1.2-1.4,2.4-2.8,3.5-4.2c0.2-0.3,0.5-0.7,0.4-1
	c-0.1-0.6-0.7-0.5-1.2-0.5c-6.3,0.5-12.6,1-18.9,1.4c-1.5,0.1-1.5,0.9-1.1,1.9c3.2,10.2,7,20.2,14.2,28.4
	C37.9,100,49.3,105.1,63.7,104.9z"/>
</svg>
