<?xml version="1.0" encoding="utf-8"?>
<!-- Generator: Adobe Illustrator 18.0.0, SVG Export Plug-In . SVG Version: 6.00 Build 0)  -->
<!DOCTYPE svg PUBLIC "-//W3C//DTD SVG 1.1//EN" "http://www.w3.org/Graphics/SVG/1.1/DTD/svg11.dtd">
<svg version="1.1" id="Layer_1" xmlns="http://www.w3.org/2000/svg" xmlns:xlink="http://www.w3.org/1999/xlink" x="0px" y="0px"
	 viewBox="0 0 112.9 126.6" enable-background="new 0 0 112.9 126.6" xml:space="preserve">
<g>
	<path fill="#F8B242" d="M48.9,0.5c13.9-1.7,26.6,1.3,38.5,8.7c3.1,2,6,4,8.6,6.7c-2.1,3.9-4.2,7.7-6.3,11.6
		c-0.6-0.6-1.1-1.1-1.7-1.7C76,14.6,62,10.5,46,13.9c-7.3,1.6-13.4,5.4-19.1,10.1c-1.3-1.8-1.5-3.9-2.5-5.8c0-0.3,0-0.6,0.1-0.9
		c0.9-0.1,1.6-0.6,2.3-1.1C34.1,10.9,41.5,5.7,48.9,0.5z"/>
	<path fill="#2EB67D" d="M112.6,51.9c1.7,14.4-2.6,27-11.3,38.3c-4.2-1.5-8.4-2.9-12.6-4.4c8.4-9.8,12.4-21,11.2-34
		c2-0.3,4.1,0.3,6.1-0.4c0.8,0.1,1.6,0.1,2.5,0.2C109.8,51.8,111.2,51.8,112.6,51.9z"/>
	<path fill="#F48150" d="M1.5,69C-1.9,53.6,0.6,39.1,9,25.7c0.4-0.7,1-1.3,1.4-1.9c0.2,0.4,0.4,0.9,0.5,1.3c0.7,4.9,1,9.9,2,14.7
		c0.8,4.1,0,7-3.7,9.1c-0.8,0.4-1.6,1.1-1.6,2.3c-1.5,1.3-2,3.4-3.2,4.9c-1,1.3-0.4,2.1,0.9,2.8c1.5,0.8,3.1,0.3,4.7,0.4
		C7.4,62.9,4.5,66,1.5,69z"/>
	<path fill="#188398" d="M95.1,126.5c-1,0.4-1.6-0.5-2.3-0.9c-6.9-4.3-13.7-8.7-20.6-13.1c-1.4-0.9-2.7-1.2-4.5-0.9
		c-10.2,2-20.3,1.7-30.1-2.2c2.6-0.8,5.4-0.3,8.1-0.7c8.7-1.2,17.3-0.8,26,0.9c6.3,1.2,12.6,2,19,3c0.6,0,1.3,0,1.9,0
		c0.8,0.2,1.3-1,2.5-0.5C95.1,117,95.1,121.7,95.1,126.5z"/>
	<path fill="#1FA398" d="M90.6,112.8c-6.3-1-12.7-1.8-19-3c-8.6-1.7-17.2-2.1-26-0.9c-2.7,0.4-5.4-0.2-8.1,0.7
		c-1.5-0.2-2.8-0.9-4.1-1.6c5.2-1.6,10.3-3.1,15.5-4.8c2.8-1,5.9-1.3,8.5-2.8c2.4-0.3,4.8-0.6,7.2-0.9c6.3,3.6,13.1,6.3,19.5,9.6
		C86.5,110.1,89.1,110.5,90.6,112.8z"/>
	<path fill="#2AAB91" d="M90.6,112.8c-1.5-2.2-4.2-2.7-6.4-3.8c-6.5-3.3-13.2-6-19.5-9.6c2.9-1.3,5.6-1.1,8.2,1
		c1.8,1.5,3.9,2.5,5.8,3.8c1.8,1.1,3.6,2.2,5.7,3.5c0-4.6,0.3-8.6-0.1-12.7c-0.4-4.1,1.2-6.9,4.3-9.2c4.2,1.5,8.4,2.9,12.6,4.4
		c-1,1.8-2.5,3.2-3.8,4.8c-0.9,1.2-2,2.3-2.1,3.9c-0.5,1.3-1.1,1.9-2.4,0.6c-0.4-0.4-1-0.8-1.5-1.1c-0.8-0.5-1.6-1.4-2.6-0.7
		c-1.2,0.7-0.3,1.8,0,2.6c1.2,4.2,2.5,8.4,3.8,12.5C91.9,112.8,91.3,112.8,90.6,112.8z"/>
	<path fill="#2AAB91" d="M57.5,100.3c-2.6,1.6-5.7,1.9-8.5,2.8c-5.1,1.7-10.3,3.2-15.5,4.8c-2.6-0.9-5-2.2-7.2-3.9
		c0.3-4.9,0.7-9.9,1-14.8C36.1,96.5,46.2,100.1,57.5,100.3z"/>
	<path fill="#F6A252" d="M1.5,69c3-3,6-6.1,8.5-9.5c-0.2-0.6-0.3-1.2-0.5-1.8c-0.7-2.1-0.5-4.5-1.9-6.4c0-1.1,0.8-1.8,1.6-2.3
		c3.7-2.1,4.6-5,3.7-9.1c-1-4.9-1.4-9.8-2-14.7c-0.1-0.5-0.3-0.9-0.5-1.3c0.3-0.7,0.7-1.4,1.4-1.8c3.5,2.3,6.6,5.1,9.4,8.2
		c-7.8,10.9-10.1,22.9-7.5,36C9.9,68,6,69.8,2.2,71.5C1.9,70.7,1.7,69.9,1.5,69z"/>
	<path fill="#F6A252" d="M89.6,27.5c2.1-3.9,4.2-7.7,6.3-11.6c5.2,4.8,9,10.6,11.6,17.2c-3.8,1.7-7.7,3-11.1,5.4
		C94.4,34.6,92.2,30.9,89.6,27.5z"/>
	<path fill="#D89957" d="M2.2,71.5C6,69.8,9.9,68,13.7,66.2c1,3,2,6,3,9c-0.2,0.8-0.3,1.7-0.6,2.5c-0.8,2.2-2.1,4.3-2.3,6.7
		c-0.2,0.3-0.3,0.5-0.5,0.8c-1.1,1.5-0.7,3.6-2,5C6.9,84.7,3.9,78.4,2.2,71.5z"/>
	<path fill="#D2AE5C" d="M96.3,38.4c3.4-2.3,7.4-3.7,11.1-5.4c1.4,2.6,2.3,5.3,2.9,8.2c-0.7,3.5-1.3,7-2,10.4
		c-0.8-0.1-1.6-0.1-2.5-0.2c-1.9-1.5-4.3-1.7-6.5-2.5C98.7,45.4,97.5,41.9,96.3,38.4z"/>
	<path fill="#95A771" d="M13.3,85.3c0.2-0.3,0.3-0.5,0.5-0.8c2.9,0,5.8,0,8.8,0c1.6,1.6,3.2,3.2,4.7,4.9c-0.3,4.9-0.7,9.9-1,14.8
		c-2.1-1.2-4-2.5-5.7-4.2c-0.2-0.2-0.3-0.4-0.5-0.5c0,0,0,0,0,0C18.5,94.3,15.8,89.9,13.3,85.3z"/>
	<path fill="#F59348" d="M48.9,0.5c-7.4,5.2-14.7,10.4-22.1,15.6c-0.7,0.5-1.4,1-2.3,1.1c-0.3-2.2-0.7-4.4-1-6.6
		C31,5,39.5,1.6,48.9,0.5z"/>
	<path fill="#F59348" d="M21.3,30.2c-2.8-3.1-5.9-5.9-9.4-8.2c0.4-0.7,0.8-1.4,1.5-1.9c3.7-0.4,7.2-1.9,11-1.9
		c0.9,1.9,1.2,4.1,2.5,5.8C25,26.1,23.1,28.1,21.3,30.2z"/>
	<path fill="#1FA398" d="M92.6,112.8c-1.3-4.2-2.6-8.3-3.8-12.5c-0.2-0.8-1.1-1.8,0-2.6c1-0.6,1.8,0.2,2.6,0.7
		c0.5,0.3,1.1,0.7,1.5,1.1c1.2,1.2,1.9,0.7,2.4-0.6c0,8.7,0,17.3-0.1,26c0,0.6,0.2,1.2-0.2,1.7c0-4.8,0-9.6,0-14.2
		C93.8,111.8,93.4,113,92.6,112.8z"/>
	<path fill="#F48150" d="M24.4,18.2c-3.8,0.1-7.3,1.6-11,1.9c2.8-3.7,6.2-6.8,10.1-9.4c0.3,2.2,0.7,4.4,1,6.6
		C24.4,17.6,24.4,17.9,24.4,18.2z"/>
	<path fill="#85867A" d="M13.3,85.3c2.5,4.6,5.2,9,6.7,14.1c-3.6-2.4-6.3-5.6-8.7-9.1C12.6,88.8,12.2,86.7,13.3,85.3z"/>
	<path fill="#95A771" d="M108.4,51.7c0.7-3.5,1.3-7,2-10.4c1.3,3.4,1.8,7,2.1,10.7C111.2,51.8,109.8,51.8,108.4,51.7z"/>
	<path fill="#85867A" d="M20,99.3c0.2,0.2,0.3,0.4,0.5,0.5C20.4,99.7,20.2,99.5,20,99.3z"/>
	<path fill="#95A771" d="M99.9,51.9c-0.2-1-0.3-1.9-0.5-2.9c2.2,0.8,4.6,1,6.5,2.5C103.9,52.2,101.9,51.6,99.9,51.9z"/>
	<path fill="#F59348" d="M7.6,51.3c1.4,1.9,1.2,4.3,1.9,6.4c0.2,0.6,0.3,1.2,0.5,1.8c-1.6-0.2-3.2,0.3-4.7-0.4
		c-1.3-0.6-1.9-1.5-0.9-2.8C5.7,54.7,6.1,52.7,7.6,51.3z"/>
	<path fill="#D2AE5C" d="M16.8,75.2c1.7,3.2,3.7,6.2,5.8,9.2c-2.9,0-5.8,0-8.8,0c0.2-2.4,1.5-4.5,2.3-6.7
		C16.4,76.9,16.6,76.1,16.8,75.2z"/>
	<path fill="#5B5B5C" d="M79.1,87.6c-2.3,2-4.4,3.9-6.5,5.9c-1,0.9-1.5,0.2-2.2-0.3c-3.1-2.5-6.1-4.9-9.1-7.4c-0.9-0.8-1.8-1-3-0.9
		c-14.6,1-25-8.2-26.2-22.8c-0.6-6.8-0.5-13.4,2-19.8c3.6-9.2,11.2-14.5,21-14.6c10.4-0.1,18.2,4.7,21.8,14.1
		c3.9,10.2,3.8,20.6-0.6,30.8c-1.3,3.1-3.6,5.6-6.3,7.9C73,82.8,75.9,85.1,79.1,87.6z M43.5,56.6c-0.1,3.6,0.2,7.5,1.6,11.3
		c1.9,4.9,5.4,7.4,10.3,7.5c4.9,0.1,8.6-2.2,10.3-7c2.8-8.1,2.8-16.3-0.1-24.4c-1.6-4.5-5.2-6.8-10-6.9c-4.8,0-8.2,2.2-10.2,6.6
		C43.7,47.7,43.5,51.9,43.5,56.6z"/>
</g>
</svg>
