[
  {
    "id": 1,
    "grid_left": [
      {
        "title": "How to Cite a Journal Article in an Online Database in MLA 8",
        "description": "bhnmghmj",
        "image": "1526209603.jpg",
        "user_id": 1,
        "status": "1",
        "created_at": "2018-05-13 11:06:43",
        "updated_at": "2018-05-13 11:06:43"
      },
      {
        "title": "How to Cite a Journal Article in an Online Database in MLA 8",
        "description": "bhnmghmj",
        "image": "1526209603.jpg",
        "user_id": 1,
        "status": "1",
        "created_at": "2018-05-13 11:06:43",
        "updated_at": "2018-05-13 11:06:43"
      }
    ],
    "grid_right": [
      {
        "title": "How to Cite a Journal Article in an Online Database in MLA 8",
        "description": "bhnmghmj",
        "image": "1526209603.jpg",
        "user_id": 1,
        "status": "1",
        "created_at": "2018-05-13 11:06:43",
        "updated_at": "2018-05-13 11:06:43"
      }
    ]
  },
  {
    "id": 2,
    "grid_left": [
      {
        "title": "How to Cite a Journal Article in an Online Database in MLA 8",
        "description": "bhnmghmj",
        "image": "1526209603.jpg",
        "user_id": 1,
        "status": "1",
        "created_at": "2018-05-13 11:06:43",
        "updated_at": "2018-05-13 11:06:43"
      },
      {
        "title": "How to Cite a Journal Article in an Online Database in MLA 8",
        "description": "bhnmghmj",
        "image": "1526209603.jpg",
        "user_id": 1,
        "status": "1",
        "created_at": "2018-05-13 11:06:43",
        "updated_at": "2018-05-13 11:06:43"
      }
    ],
    "grid_right": [
      {
        "title": "How to Cite a Journal Article in an Online Database in MLA 8",
        "description": "bhnmghmj",
        "image": "1526209603.jpg",
        "user_id": 1,
        "status": "1",
        "created_at": "2018-05-13 11:06:43",
        "updated_at": "2018-05-13 11:06:43"
      }
    ]
  }
]